{
    "app-id" : "me.katewulff.Tuner",
    "runtime" : "org.gnome.Platform",
    "runtime-version" : "43",
    "sdk" : "org.gnome.Sdk",
    "sdk-extensions" : [
        "org.freedesktop.Sdk.Extension.vala"
    ],
    "command" : "tuner",
    "finish-args" : [
        "--share=network",
        "--share=ipc",
        "--socket=fallback-x11",
        "--device=dri",
        "--socket=wayland",
        "--socket=pulseaudio"
    ],
    "build-options" : {
        "append-path" : "/usr/lib/sdk/vala/bin",
        "prepend-ld-library-path" : "/usr/lib/sdk/vala/lib"
    },
    "cleanup" : [
        "/include",
        "/lib/pkgconfig",
        "/man",
        "/share/doc",
        "/share/gtk-doc",
        "/share/man",
        "/share/pkgconfig",
        "/share/vala",
        "*.la",
        "*.a"
    ],
    "modules" : [
        {
            "name": "blueprint-compiler",
            "buildsystem": "meson",
            "sources": [
                {
                    "type": "git",
                    "url": "https://gitlab.gnome.org/jwestman/blueprint-compiler",
                    "branch": "main"
                }
            ]
        },
        {
            "name" : "vala-test",
            "builddir" : true,
            "buildsystem" : "meson",
            "sources" : [
                {
                    "type" : "git",
                    "url" : "https://gitlab.com/katewulff86/vala-test",
                    "branch": "main"
                }
            ]
        },
        {
            "name" : "tuner",
            "builddir" : true,
            "buildsystem" : "meson",
            "sources" : [
                {
                    "type" : "git",
                    "url" : "https://gitlab.com/katewulff86/tuner",
                    "branch": "main"
                }
            ]
        }
    ]
}

